%YAML 1.1
%TAG !u! tag:unity3d.com,2011:
--- !u!114 &11400000
MonoBehaviour:
  m_ObjectHideFlags: 0
  m_CorrespondingSourceObject: {fileID: 0}
  m_PrefabInstance: {fileID: 0}
  m_PrefabAsset: {fileID: 0}
  m_GameObject: {fileID: 0}
  m_Enabled: 1
  m_EditorHideFlags: 0
  m_Script: {fileID: 11500000, guid: 283cda5d9fbcbbd449e6af66bd02081a, type: 3}
  m_Name: Sylvanas
  m_EditorClassIdentifier: 
  Class: 2
  ClassName: Sylvanas
  MaxHealth: 40
  WandPowerName: N_WandPower
  WandPowerCardAsset: {fileID: 11400000, guid: 7017231044e45c741a6a9a5f4b232ba7, type: 2}
  ClassSpellFrameImage: {fileID: 21300000, guid: cbe0d6b5539e1ad40911ecf36b082ba2,
    type: 3}
  ClassServantFrameImage: {fileID: 21300000, guid: fb5c308b7c08e0c4f9225b49f9fb5962,
    type: 3}
  ClassCardTypeImage: {fileID: 7070693354332028549, guid: 79401778fa1892648a5d7aa67911fab7,
    type: 3}
  CardBackImage: {fileID: -3732664269091146146, guid: c91de88266c69074393e6fa82b9b57a3,
    type: 3}
  AvatarImage: {fileID: -4465628487971286795, guid: 53f4f493a1e87f449a3487f68c3596f2,
    type: 3}
  WandPowerIcon: {fileID: 21300000, guid: 61c403eb5ecd3ed44bcf3b0e598deb12, type: 3}
