%YAML 1.1
%TAG !u! tag:unity3d.com,2011:
--- !u!114 &11400000
MonoBehaviour:
  m_ObjectHideFlags: 0
  m_CorrespondingSourceObject: {fileID: 0}
  m_PrefabInstance: {fileID: 0}
  m_PrefabAsset: {fileID: 0}
  m_GameObject: {fileID: 0}
  m_Enabled: 1
  m_EditorHideFlags: 0
  m_Script: {fileID: 11500000, guid: dff43416930a3f248b8ccddd9bbd839d, type: 3}
  m_Name: N_Undercity Punk
  m_EditorClassIdentifier: 
  characterAsset: {fileID: 11400000, guid: 214a0972c971d5a4b82db73337ca11a8, type: 2}
  cardName: Undercity Punk
  Description: 'Venomous:'
  cardIllustration: {fileID: 21300000, guid: ef231a474413c0d4783c4e9f27f58163, type: 3}
  ManaCost: 2
  MaxHealth: 1
  Attack: 1
  AttacksForOneTurn: 1
  Charm: 0
  Berserk: 0
  Venomous: 1
  Vampire: 0
  ServantScriptName: 
  SpecialServantAmmount: 1
  SpellScriptName: 
  SpecialSpellAmmount: 0
  targets: 0
