%YAML 1.1
%TAG !u! tag:unity3d.com,2011:
--- !u!114 &11400000
MonoBehaviour:
  m_ObjectHideFlags: 0
  m_CorrespondingSourceObject: {fileID: 0}
  m_PrefabInstance: {fileID: 0}
  m_PrefabAsset: {fileID: 0}
  m_GameObject: {fileID: 0}
  m_Enabled: 1
  m_EditorHideFlags: 0
  m_Script: {fileID: 11500000, guid: dff43416930a3f248b8ccddd9bbd839d, type: 3}
  m_Name: Ne_Fortunate Croupier
  m_EditorClassIdentifier: 
  characterAsset: {fileID: 0}
  cardName: Fortunate Croupier
  Description: 'Divination: Summon 3 random servants from your deck'
  cardIllustration: {fileID: 21300000, guid: 0f25b384f63c74147857f77a6a600548, type: 3}
  ManaCost: 10
  MaxHealth: 4
  Attack: 4
  AttacksForOneTurn: 1
  Charm: 0
  Berserk: 0
  Venomous: 0
  Vampire: 0
  ServantScriptName: FortunateCroupier
  SpecialServantAmmount: 3
  SpellScriptName: 
  SpecialSpellAmmount: 0
  targets: 0
