%YAML 1.1
%TAG !u! tag:unity3d.com,2011:
--- !u!114 &11400000
MonoBehaviour:
  m_ObjectHideFlags: 0
  m_CorrespondingSourceObject: {fileID: 0}
  m_PrefabInstance: {fileID: 0}
  m_PrefabAsset: {fileID: 0}
  m_GameObject: {fileID: 0}
  m_Enabled: 1
  m_EditorHideFlags: 0
  m_Script: {fileID: 11500000, guid: dff43416930a3f248b8ccddd9bbd839d, type: 3}
  m_Name: O_Ada - Natures Malice
  m_EditorClassIdentifier: 
  characterAsset: {fileID: 11400000, guid: 55ad45b6932745f46b8920a34b4f022c, type: 2}
  cardName: Ada - Natures Malice
  Description: 'Vampire:'
  cardIllustration: {fileID: 21300000, guid: f060f77f5e8c15e4d8a9bc350fc1873b, type: 3}
  ManaCost: 2
  MaxHealth: 3
  Attack: 3
  AttacksForOneTurn: 1
  Charm: 0
  Berserk: 0
  Venomous: 0
  Vampire: 1
  ServantScriptName: 
  SpecialServantAmmount: 0
  SpellScriptName: 
  SpecialSpellAmmount: 0
  targets: 0
