%YAML 1.1
%TAG !u! tag:unity3d.com,2011:
--- !u!114 &11400000
MonoBehaviour:
  m_ObjectHideFlags: 0
  m_CorrespondingSourceObject: {fileID: 0}
  m_PrefabInstance: {fileID: 0}
  m_PrefabAsset: {fileID: 0}
  m_GameObject: {fileID: 0}
  m_Enabled: 1
  m_EditorHideFlags: 0
  m_Script: {fileID: 11500000, guid: dff43416930a3f248b8ccddd9bbd839d, type: 3}
  m_Name: O_Arcane Arrow
  m_EditorClassIdentifier: 
  characterAsset: {fileID: 11400000, guid: 55ad45b6932745f46b8920a34b4f022c, type: 2}
  cardName: Arcane Arrow
  Description: Deal 2 damage to an enemy servant, if target is frozen deal 6 instead
  cardIllustration: {fileID: 21300000, guid: 4052e1139df65774ea62555db968452e, type: 3}
  ManaCost: 1
  MaxHealth: 0
  Attack: 0
  AttacksForOneTurn: 1
  Charm: 0
  Berserk: 0
  Venomous: 0
  Vampire: 0
  ServantScriptName: 
  SpecialServantAmmount: 0
  SpellScriptName: ArcaneArrow
  SpecialSpellAmmount: 2
  targets: 2
