%YAML 1.1
%TAG !u! tag:unity3d.com,2011:
--- !u!114 &11400000
MonoBehaviour:
  m_ObjectHideFlags: 0
  m_CorrespondingSourceObject: {fileID: 0}
  m_PrefabInstance: {fileID: 0}
  m_PrefabAsset: {fileID: 0}
  m_GameObject: {fileID: 0}
  m_Enabled: 1
  m_EditorHideFlags: 0
  m_Script: {fileID: 11500000, guid: dff43416930a3f248b8ccddd9bbd839d, type: 3}
  m_Name: P_Furious Jalali
  m_EditorClassIdentifier: 
  characterAsset: {fileID: 11400000, guid: 99ad87ca8dd3d254d885e683f90929f0, type: 2}
  cardName: Furious Jalali
  Description: Deal 10 damage to an enemy servant
  cardIllustration: {fileID: 21300000, guid: de72e8805db4d064a91a47b0a78674c3, type: 3}
  ManaCost: 6
  MaxHealth: 0
  Attack: 0
  AttacksForOneTurn: 1
  Charm: 0
  Berserk: 0
  Venomous: 0
  Vampire: 0
  ServantScriptName: 
  SpecialServantAmmount: 0
  SpellScriptName: FuriousJalali
  SpecialSpellAmmount: 10
  targets: 2
