%YAML 1.1
%TAG !u! tag:unity3d.com,2011:
--- !u!114 &11400000
MonoBehaviour:
  m_ObjectHideFlags: 0
  m_CorrespondingSourceObject: {fileID: 0}
  m_PrefabInstance: {fileID: 0}
  m_PrefabAsset: {fileID: 0}
  m_GameObject: {fileID: 0}
  m_Enabled: 1
  m_EditorHideFlags: 0
  m_Script: {fileID: 11500000, guid: dff43416930a3f248b8ccddd9bbd839d, type: 3}
  m_Name: N_Skeleton
  m_EditorClassIdentifier: 
  characterAsset: {fileID: 11400000, guid: 214a0972c971d5a4b82db73337ca11a8, type: 2}
  cardName: Skeleton
  Description: 'Dying Breath: Deal 1 damage to a random enemy'
  cardIllustration: {fileID: 21300000, guid: dbe9690bd8be7664a89f30b6646fc288, type: 3}
  ManaCost: 1
  MaxHealth: 1
  Attack: 1
  AttacksForOneTurn: 1
  Charm: 0
  Berserk: 0
  Venomous: 0
  Vampire: 0
  ServantScriptName: Skeleton
  SpecialServantAmmount: 1
  SpellScriptName: 
  SpecialSpellAmmount: 0
  targets: 0
  isPositiveEffect: 0
